IS415 Geospatial-KMR - Take Home Exercise 2
…
# grouping based on the sub-district and date
vaccination_rate <- vaccination_jakarta %>%
  inner_join(bd_jakarta, by=c("Sub_District" = "Sub_District")) %>%
  group_by(Sub_District, Date) %>%
  dplyr::summarise(`vaccination_rate` = ((Target-Not_Yet_Vaccinated)/Target)*100) %>%
  
  #afterwards, pivots the table based on the Dates, using the cumulative case rate as the values
  ungroup() %>% pivot_wider(names_from = Date,
              values_from = vaccination_rate)

Let us look into how the computation is

vaccination_rate

# A tibble: 261 x 13
   Sub_District  2021-~1 2021-~2 2021-~3 2021-~4 2021-~5 2021-~6 2022-~7 2022-~8
   <chr>           <dbl>   <dbl>   <dbl>   <dbl>   <dbl>   <dbl>   <dbl>   <dbl>
 1 ANCOL            48.5    61.6    72.1    75.0    76.9    78.9    80.6    80.8
 2 ANGKE            52.8    64.6    74.2    77.7    79.6    80.9    81.7    81.9
 3 BALE KAMBANG     37.0    57.0    70.0    73.9    76.6    78.2    79.5    79.7
 4 BALI MESTER      47.0    62.0    74.2    78.2    80.3    81.7    82.8    83.1
 5 BAMBU APUS       47.6    64.2    76.2    80.9    82.5    83.4    84.5    84.7
 6 BANGKA           51.6    61.3    73.2    78.0    79.8    80.7    81.5    81.7
 7 BARU             57.9    67.6    79.5    82.9    84.2    85.0    85.8    86.0
 8 BATU AMPAR       39.8    58.4    70.6    74.5    77.1    78.8    80.1    80.4
 9 BENDUNGAN HI~    53.6    62.6    75.6    79.1    80.5    81.4    82.3    82.5
10 BIDARA CINA      40.6    57.6    71.0    75.2    77.0    78.2    79.2    79.5
# ... with 251 more rows, 4 more variables: `2022-03-31` <dbl>,
#   `2022-04-30` <dbl>, `2022-05-31` <dbl>, `2022-06-30` <dbl>, and abbreviated
#   variable names 1: `2021-07-31`, 2: `2021-08-31`, 3: `2021-09-30`,
#   4: `2021-10-31`, 5: `2021-11-30`, 6: `2021-12-31`, 7: `2022-01-31`,
#   8: `2022-02-27`
…
set.seed(1234)

6.4 Calculation of GI* value

The calculation of the Gi* value for each sub-district where we group by date

gi_values <- vaccination_rate_nb |>
  group_by(Date) |>
  mutate(gi_values = local_gstar_perm(
    Vaccination_Rate, nb, wt, nsim=99)) |>
      tidyr::unnest(gi_values)

gi_values

# A tibble: 3,132 x 13
# Groups:   Date [12]
   Date       Sub_District   Vacci~1 nb    wt    gi_star    e_gi  var_gi p_value
   <date>     <chr>            <dbl> <lis> <lis>   <dbl>   <dbl>   <dbl>   <dbl>
 1 2021-07-31 KEAGUNGAN         53.3 <int> <dbl>   2.54  0.00387 1.24e-8   2.87 
 2 2021-07-31 GLODOK            61.6 <int> <dbl>   3.71  0.00403 1.19e-8   2.65 
 3 2021-07-31 HARAPAN MULIA     49.7 <int> <dbl>   0.280 0.00380 1.66e-8   0.511
 4 2021-07-31 CEMPAKA BARU      46.7 <int> <dbl>  -0.961 0.00376 1.29e-8  -0.465
 5 2021-07-31 PASAR BARU        59.3 <int> <dbl>   2.70  0.00395 1.15e-8   1.79 
 6 2021-07-31 KARANG ANYAR      52.2 <int> <dbl>   1.82  0.00385 1.45e-8   1.86 
 7 2021-07-31 MANGGA DUA SE~    51.6 <int> <dbl>   1.66  0.00385 1.49e-8   1.43 
 8 2021-07-31 PETOJO UTARA      47.2 <int> <dbl>  -0.236 0.00375 1.16e-8   0.487
 9 2021-07-31 SENEN             54.4 <int> <dbl>   1.37  0.00386 1.04e-8   1.18 
10 2021-07-31 BUNGUR            52.8 <int> <dbl>   0.922 0.00387 1.04e-8   0.703
# ... with 3,122 more rows, 4 more variables: p_sim <dbl>, p_folded_sim <dbl>,
#   skewness <dbl>, kurtosis <dbl>, and abbreviated variable name
#   1: Vaccination_Rate
…
