IS415 Geospatial-KMR - In-class Exercise 7
…
lisa <- wm_q %>%
  mutate(local_moran = local_moran(
    GDPPC, nb, wt, nsim = 99),
    .before = 1) %>%
  unnest(local_moran)

lisa

Simple feature collection with 88 features and 20 fields
Geometry type: POLYGON
Dimension:     XY
Bounding box:  xmin: 108.7831 ymin: 24.6342 xmax: 114.2544 ymax: 30.12812
Geodetic CRS:  WGS 84
# A tibble: 88 × 21
         ii        eii   var_ii    z_ii    p_ii p_ii_…¹ p_fol…² skewn…³ kurtosis
      <dbl>      <dbl>    <dbl>   <dbl>   <dbl>   <dbl>   <dbl>   <dbl>    <dbl>
 1 -0.00147  0.00177    4.18e-4 -0.158  0.874      0.82    0.41  -0.812  0.652  
 2  0.0259   0.00641    1.05e-2  0.190  0.849      0.96    0.48  -1.09   1.89   
 3 -0.0120  -0.0374     1.02e-1  0.0796 0.937      0.76    0.38   0.824  0.0461 
 4  0.00102 -0.0000349  4.37e-6  0.506  0.613      0.64    0.32   1.04   1.61   
 5  0.0148  -0.00340    1.65e-3  0.449  0.654      0.5     0.25   1.64   3.96   
 6 -0.0388  -0.00339    5.45e-3 -0.480  0.631      0.82    0.41   0.614 -0.264  
 7  3.37    -0.198      1.41e+0  3.00   0.00266    0.08    0.04   1.46   2.74   
 8  1.56    -0.265      8.04e-1  2.04   0.0417     0.08    0.04   0.459 -0.519  
 9  4.42     0.0450     1.79e+0  3.27   0.00108    0.02    0.01   0.746 -0.00582
10 -0.399   -0.0505     8.59e-2 -1.19   0.234      0.28    0.14  -0.685  0.134  
# … with 78 more rows, 12 more variables: mean <fct>, median <fct>,
#   pysal <fct>, nb <nb>, wt <list>, NAME_2 <chr>, ID_3 <int>, NAME_3 <chr>,
#   ENGTYPE_3 <chr>, County <chr>, GDPPC <dbl>, geometry <POLYGON [°]>, and
#   abbreviated variable names ¹​p_ii_sim, ²​p_folded_sim, ³​skewness
